[gd_scene load_steps=5 format=2]

[ext_resource path="res://buster_shot.gd" type="Script" id=1]

[sub_resource type="SpatialMaterial" id=1]
albedo_color = Color( 0.882353, 0.396078, 1, 0.403922 )

[sub_resource type="CapsuleMesh" id=2]
material = SubResource( 1 )
mid_height = 0.5

[sub_resource type="CapsuleShape" id=3]

[node name="Buster_Bullet" type="KinematicBody"]
transform = Transform( 0.1, 0, 0, 0, 0.1, 0, 0, 0, 0.1, 0, 0, 0 )
collision_layer = 1033
collision_mask = 1033
script = ExtResource( 1 )

[node name="MeshInstance" type="MeshInstance" parent="."]
mesh = SubResource( 2 )
material/0 = null

[node name="buster_shot_area" type="Area" parent="."]

[node name="CollisionShape" type="CollisionShape" parent="buster_shot_area"]
transform = Transform( 0.5, 0, 0, 0, 0.5, 0, 0, 0, 0.5, 0, 0, 0 )
shape = SubResource( 3 )

[node name="Bullet_shape" type="CollisionShape" parent="."]
transform = Transform( 0.1, 0, 0, 0, 0.1, 0, 0, 0, 0.1, 0, 0, 0 )
shape = SubResource( 3 )
[connection signal="area_entered" from="buster_shot_area" to="." method="_on_buster_shot_area_area_entered"]
