[gd_scene load_steps=3 format=2]

[ext_resource path="res://Camera.tscn" type="PackedScene" id=1]

[sub_resource type="Environment" id=1]

resource_local_to_scene = true
background_mode = 1
background_sky_custom_fov = 0.0
background_color = Color( 0.341995, 0.660432, 0.941406, 1 )
background_energy = 1.0
background_canvas_max_layer = 0
ambient_light_color = Color( 1, 1, 1, 1 )
ambient_light_energy = 1.25
ambient_light_sky_contribution = 0.25
fog_enabled = true
fog_color = Color( 1, 1, 1, 1 )
fog_sun_color = Color( 1, 1, 1, 1 )
fog_sun_amount = 0.25
fog_depth_enabled = true
fog_depth_begin = 50.0
fog_depth_curve = 0.287175
fog_transmit_enabled = false
fog_transmit_curve = 0.68302
fog_height_enabled = false
fog_height_min = 0.0
fog_height_max = 100.0
fog_height_curve = 0.406126
tonemap_mode = 3
tonemap_exposure = 0.7
tonemap_white = 1.0
auto_exposure_enabled = false
auto_exposure_scale = 0.4
auto_exposure_min_luma = 0.1
auto_exposure_max_luma = 16.0
auto_exposure_speed = 0.5
ss_reflections_enabled = false
ss_reflections_max_steps = 64
ss_reflections_fade_in = 0.15
ss_reflections_fade_out = 2.0
ss_reflections_depth_tolerance = 0.2
ss_reflections_roughness = true
ssao_enabled = true
ssao_radius = 1.0
ssao_intensity = 1.0
ssao_radius2 = 0.0
ssao_intensity2 = 1.0
ssao_bias = 0.01
ssao_light_affect = 0.0
ssao_color = Color( 0, 0, 0, 1 )
ssao_quality = 0
ssao_blur = 3
ssao_edge_sharpness = 4.0
dof_blur_far_enabled = false
dof_blur_far_distance = 40.0
dof_blur_far_transition = 25.0
dof_blur_far_amount = 0.1
dof_blur_far_quality = 1
dof_blur_near_enabled = false
dof_blur_near_distance = 2.0
dof_blur_near_transition = 1.0
dof_blur_near_amount = 0.1
dof_blur_near_quality = 1
glow_enabled = true
glow_levels/1 = false
glow_levels/2 = false
glow_levels/3 = true
glow_levels/4 = false
glow_levels/5 = true
glow_levels/6 = false
glow_levels/7 = false
glow_intensity = 0.8
glow_strength = 0.25
glow_bloom = 0.5
glow_blend_mode = 2
glow_hdr_threshold = 2.0
glow_hdr_scale = 1.0
glow_bicubic_upscale = true
adjustment_enabled = true
adjustment_brightness = 1.0
adjustment_contrast = 1.1
adjustment_saturation = 1.1
_sections_unfolded = [ "Background", "Resource" ]

[node name="Cam_Anchor" type="Camera" index="0"]

transform = Transform( 1, 0, 0, 0, -4.37114e-008, 1, 0, -1, -4.37114e-008, 0, 0, 0 )
keep_aspect = 1
cull_mask = 1048575
environment = null
h_offset = 0.0
v_offset = 0.0
doppler_tracking = 1
projection = 0
current = true
fov = 45.0
size = 1.0
near = 0.05
far = 100.0
_sections_unfolded = [ "Transform" ]

[node name="Camera" type="Spatial" parent="." index="0" instance=ExtResource( 1 )]

transform = Transform( 1, 0, 0, 0, 1, 0, 0, 0, 1, 0, 6.87998, -6.1906 )
_sections_unfolded = [ "Transform" ]

[node name="WorldEnvironment" parent="Camera" index="0"]

environment = SubResource( 1 )


[editable path="Camera"]
