[gd_scene load_steps=3 format=2]

[ext_resource path="res://Models/reaverbots/motb_reavers/0c20_high.glb" type="PackedScene" id=1]
[ext_resource path="res://Models/reaverbots/motb_reavers/Habarool_Eye.tscn" type="PackedScene" id=2]

[node name="Habarool" index="0" instance=ExtResource( 1 )]

[node name="Skeleton" parent="0c20_high" index="0"]
bones/2/bound_children = [ NodePath("BoneAttachment") ]

[node name="BoneAttachment" type="BoneAttachment" parent="0c20_high/Skeleton" index="0"]
transform = Transform( 1, 0, 0, 0, 1, 0, 0, 0, 1, 0, 0.95, -1.16341e-016 )
bone_name = "Bone 2"

[node name="Habarool_Eye" parent="0c20_high/Skeleton/BoneAttachment" index="0" instance=ExtResource( 2 )]
transform = Transform( 1, 3.56376e-008, 0, -1.73168e-009, 1, 0, 0, 3.72529e-008, 1, 0.0106581, -0.947419, -0.0439294 )

[node name="Mesh" parent="0c20_high" index="1"]
visible = false

[node name="Mesh 2" parent="0c20_high" index="2"]
visible = false
