[gd_scene load_steps=12 format=2]

[ext_resource path="res://Models/Ruin_Objects/Door_B.tscn" type="PackedScene" id=1]
[ext_resource path="res://Models/reaverbots/Horroko.tscn" type="PackedScene" id=2]
[ext_resource path="res://Models/reaverbots/motb_reavers/HabaroolGreen/Habarool_Green.tscn" type="PackedScene" id=3]
[ext_resource path="res://Models/reaverbots/Sharukurusutest.png" type="Texture" id=4]
[ext_resource path="res://Models/reaverbots/Sharukurusu.tscn" type="PackedScene" id=5]
[ext_resource path="res://Models/reaverbots/motb_reavers/HabaroolGreen/Habarool_Halloween.png" type="Texture" id=6]
[ext_resource path="res://Maps/Demo_Ruins/Kimo_Theme/Kimo_Theme_B1.dae" type="PackedScene" id=7]
[ext_resource path="res://Maps/Demo_Ruins/Kimo_Theme/kimo_mesh.tres" type="ArrayMesh" id=8]

[sub_resource type="SpatialMaterial" id=1]
albedo_texture = ExtResource( 4 )

[sub_resource type="SpatialMaterial" id=2]
albedo_texture = ExtResource( 6 )

[sub_resource type="ConcavePolygonShape" id=3]
data = PoolVector3Array( -15.84, -1.44, -28.8, -15.2, -1.44, -28.16, -15.84, -1.44, -28.16, -15.84, -1.44, -28.8, -15.2, -1.44, -28.8, -15.2, -1.44, -28.16, -15.2, -1.44, -28.16, -15.84, -1.28, -28.16, -15.84, -1.44, -28.16, -15.2, -1.44, -28.16, -15.2, -1.28, -28.16, -15.84, -1.28, -28.16, -15.84, -1.28, -28.8, -15.84, -1.44, -28.16, -15.84, -1.28, -28.16, -15.84, -1.28, -28.8, -15.84, -1.44, -28.8, -15.84, -1.44, -28.16, -15.2, -1.44, -28.8, -15.2, -1.28, -28.16, -15.2, -1.44, -28.16, -15.2, -1.44, -28.8, -15.2, -1.28, -28.8, -15.2, -1.28, -28.16, -15.2, -1.28, -28.8, -15.84, -1.44, -28.8, -15.84, -1.28, -28.8, -15.2, -1.28, -28.8, -15.2, -1.44, -28.8, -15.84, -1.44, -28.8, -19.68, -1.44, -19.84, -20.32, -1.44, -19.2, -20.32, -1.44, -19.84, -19.68, -1.44, -19.84, -19.68, -1.44, -19.2, -20.32, -1.44, -19.2, -15.2, -1.44, -15.36, -15.84, -1.44, -14.72, -15.84, -1.44, -15.36, -15.2, -1.44, -15.36, -15.2, -1.44, -14.72, -15.84, -1.44, -14.72, -0.64, -1.44, 23.04, -1.28, -1.44, 23.68, -1.28, -1.44, 23.04, -0.64, -1.44, 23.04, -0.64, -1.44, 23.68, -1.28, -1.44, 23.68, -2.56, -1.44, 21.12, -3.2, -1.44, 21.76, -3.2, -1.44, 21.12, -2.56, -1.44, 21.12, -2.56, -1.44, 21.76, -3.2, -1.44, 21.76, -2.56, -1.44, 24.96, -3.2, -1.44, 25.6, -3.2, -1.44, 24.96, -2.56, -1.44, 24.96, -2.56, -1.44, 25.6, -3.2, -1.44, 25.6, -19.68, -1.28, -19.84, -20.32, -1.44, -19.84, -20.32, -1.28, -19.84, -19.68, -1.28, -19.84, -19.68, -1.44, -19.84, -20.32, -1.44, -19.84, -20.32, -1.44, -19.2, -20.32, -1.28, -19.84, -20.32, -1.44, -19.84, -20.32, -1.44, -19.2, -20.32, -1.28, -19.2, -20.32, -1.28, -19.84, -19.68, -1.44, -19.2, -20.32, -1.28, -19.2, -20.32, -1.44, -19.2, -19.68, -1.44, -19.2, -19.68, -1.28, -19.2, -20.32, -1.28, -19.2, -19.68, -1.28, -19.2, -19.68, -1.44, -19.84, -19.68, -1.28, -19.84, -19.68, -1.28, -19.2, -19.68, -1.44, -19.2, -19.68, -1.44, -19.84, -15.2, -1.28, -15.36, -15.84, -1.44, -15.36, -15.84, -1.28, -15.36, -15.2, -1.28, -15.36, -15.2, -1.44, -15.36, -15.84, -1.44, -15.36, -15.84, -1.44, -14.72, -15.84, -1.28, -15.36, -15.84, -1.44, -15.36, -15.84, -1.44, -14.72, -15.84, -1.28, -14.72, -15.84, -1.28, -15.36, -15.2, -1.44, -14.72, -15.84, -1.28, -14.72, -15.84, -1.44, -14.72, -15.2, -1.44, -14.72, -15.2, -1.28, -14.72, -15.84, -1.28, -14.72, -15.2, -1.28, -14.72, -15.2, -1.44, -15.36, -15.2, -1.28, -15.36, -15.2, -1.28, -14.72, -15.2, -1.44, -14.72, -15.2, -1.44, -15.36, -0.64, -1.28, 23.04, -1.28, -1.44, 23.04, -1.28, -1.28, 23.04, -0.64, -1.28, 23.04, -0.64, -1.44, 23.04, -1.28, -1.44, 23.04, -1.28, -1.44, 23.68, -1.28, -1.28, 23.04, -1.28, -1.44, 23.04, -1.28, -1.44, 23.68, -1.28, -1.28, 23.68, -1.28, -1.28, 23.04, -0.64, -1.44, 23.68, -1.28, -1.28, 23.68, -1.28, -1.44, 23.68, -0.64, -1.44, 23.68, -0.64, -1.28, 23.68, -1.28, -1.28, 23.68, -0.64, -1.28, 23.68, -0.64, -1.44, 23.04, -0.64, -1.28, 23.04, -0.64, -1.28, 23.68, -0.64, -1.44, 23.68, -0.64, -1.44, 23.04, -2.56, -1.28, 21.12, -3.2, -1.44, 21.12, -3.2, -1.28, 21.12, -2.56, -1.28, 21.12, -2.56, -1.44, 21.12, -3.2, -1.44, 21.12, -3.2, -1.44, 21.76, -3.2, -1.28, 21.12, -3.2, -1.44, 21.12, -3.2, -1.44, 21.76, -3.2, -1.28, 21.76, -3.2, -1.28, 21.12, -2.56, -1.44, 21.76, -3.2, -1.28, 21.76, -3.2, -1.44, 21.76, -2.56, -1.44, 21.76, -2.56, -1.28, 21.76, -3.2, -1.28, 21.76, -2.56, -1.28, 21.76, -2.56, -1.44, 21.12, -2.56, -1.28, 21.12, -2.56, -1.28, 21.76, -2.56, -1.44, 21.76, -2.56, -1.44, 21.12, -2.56, -1.28, 24.96, -3.2, -1.44, 24.96, -3.2, -1.28, 24.96, -2.56, -1.28, 24.96, -2.56, -1.44, 24.96, -3.2, -1.44, 24.96, -3.2, -1.44, 25.6, -3.2, -1.28, 24.96, -3.2, -1.44, 24.96, -3.2, -1.44, 25.6, -3.2, -1.28, 25.6, -3.2, -1.28, 24.96, -2.56, -1.44, 25.6, -3.2, -1.28, 25.6, -3.2, -1.44, 25.6, -2.56, -1.44, 25.6, -2.56, -1.28, 25.6, -3.2, -1.28, 25.6, -2.56, -1.28, 25.6, -2.56, -1.44, 24.96, -2.56, -1.28, 24.96, -2.56, -1.28, 25.6, -2.56, -1.44, 25.6, -2.56, -1.44, 24.96, -9.6, -1.28, 24.64, -11.52, -1.28, 23.68, -11.52, -1.28, 23.04, -9.6, -1.28, 24.64, -12.16, -1.28, 24.64, -11.52, -1.28, 23.68, -9.6, -1.28, 22.08, -9.6, -1.28, 24.64, -11.52, -1.28, 23.04, -12.16, -1.28, 22.08, -9.6, -1.28, 22.08, -11.52, -1.28, 23.04, -12.16, -1.28, 23.04, -12.16, -1.28, 22.08, -11.52, -1.28, 23.04, -12.16, -1.28, 24.64, -12.16, -1.28, 23.68, -11.52, -1.28, 23.68, -8.32, -1.28, 22.72, -9.6, -1.28, 24, -9.6, -1.28, 22.72, -8.32, -1.28, 22.72, -8.32, -1.28, 24, -9.6, -1.28, 24, -18.08, 0, -18.24, -18.08, 0, -20.8, -19.68, 0, -19.2, -18.08, 0, -20.8, -19.68, 0, -19.84, -19.68, 0, -19.2, -18.08, 0, -18.24, -19.68, 0, -19.2, -20.32, 0, -19.2, -20.64, 0, -18.24, -18.08, 0, -18.24, -20.32, 0, -19.2, -18.08, 0, -20.8, -20.64, 0, -20.8, -19.68, 0, -19.84, -19.68, 0, -19.84, -20.64, 0, -20.8, -20.64, 0, -19.84, -20.64, 0, -18.24, -20.32, 0, -19.2, -20.32, 0, -19.84, -20.64, 0, -18.24, -20.32, 0, -19.84, -20.64, 0, -19.84, -15.2, 0, -28.16, -14.24, 0, -29.76, -15.2, 0, -28.8, -14.24, 0, -27.2, -14.24, 0, -29.76, -15.2, 0, -28.16, -14.24, 0, -29.76, -16.8, 0, -29.76, -15.2, 0, -28.8, -16.8, 0, -29.76, -15.84, 0, -28.8, -15.2, 0, -28.8, -14.24, 0, -27.2, -15.2, 0, -28.16, -16.8, 0, -27.2, -15.84, 0, -28.8, -16.8, 0, -29.76, -16.8, 0, -28.16, -15.84, 0, -28.16, -15.84, 0, -28.8, -16.8, 0, -28.16, -15.2, 0, -28.16, -16.8, 0, -28.16, -16.8, 0, -27.2, -14.24, 0, -14.4, -14.24, 0, -16.96, -15.2, 0, -14.72, -14.24, 0, -16.96, -15.2, 0, -15.36, -15.2, 0, -14.72, -14.24, 0, -14.4, -15.2, 0, -14.72, -15.84, 0, -14.72, -16.8, 0, -14.4, -14.24, 0, -14.4, -15.84, 0, -14.72, -15.2, 0, -15.36, -14.24, 0, -16.96, -16.8, 0, -16.96, -16.8, 0, -15.36, -15.2, 0, -15.36, -16.8, 0, -16.96, -16.8, 0, -14.4, -15.84, 0, -14.72, -15.84, 0, -15.36, -16.8, 0, -14.4, -15.84, 0, -15.36, -16.8, 0, -15.36, -16.16, 0, -22.08, -14.88, 0, -27.2, -16.16, 0, -27.2, -16.16, 0, -22.08, -14.88, 0, -22.08, -14.88, 0, -27.2, -12.96, 0, -16.96, -18.08, 0, -22.08, -18.08, 0, -16.96, -12.96, 0, -16.96, -12.96, 0, -22.08, -18.08, 0, -22.08, -12.96, 0, -18.88, -2.72, 0, -20.16, -12.96, 0, -20.16, -12.96, 0, -18.88, -2.72, 0, -18.88, -2.72, 0, -20.16, -7.04, -1.28, 24, -5.44, -1.28, 22.72, -5.44, -1.28, 24, -7.04, -1.28, 24, -7.04, -1.28, 22.72, -5.44, -1.28, 22.72, -2.56, -1.28, 21.76, -0.32, -1.28, 20.8, -0.64, -1.28, 23.04, -0.32, -1.28, 20.8, -0.64, -1.28, 23.68, -0.64, -1.28, 23.04, -0.32, -1.28, 20.8, -0.32, -1.28, 25.92, -0.64, -1.28, 23.68, -3.2, -1.28, 21.76, -2.56, -1.28, 21.76, -0.64, -1.28, 23.04, -0.32, -1.28, 25.92, -2.56, -1.28, 25.6, -0.64, -1.28, 23.68, -0.32, -1.28, 20.8, -2.56, -1.28, 21.76, -2.56, -1.28, 21.12, -3.2, -1.28, 21.76, -0.64, -1.28, 23.04, -5.44, -1.28, 21.12, -0.64, -1.28, 23.68, -2.56, -1.28, 25.6, -1.28, -1.28, 23.68, -2.56, -1.28, 25.6, -2.56, -1.28, 24.96, -1.28, -1.28, 23.68, -2.56, -1.28, 25.6, -0.32, -1.28, 25.92, -3.2, -1.28, 25.6, -0.32, -1.28, 25.92, -5.44, -1.28, 25.92, -3.2, -1.28, 25.6, -5.44, -1.28, 20.8, -0.32, -1.28, 20.8, -2.56, -1.28, 21.12, -5.44, -1.28, 20.8, -2.56, -1.28, 21.12, -5.44, -1.28, 21.12, -3.2, -1.28, 21.12, -3.2, -1.28, 21.76, -5.44, -1.28, 21.12, -0.64, -1.28, 23.04, -5.44, -1.28, 23.04, -5.44, -1.28, 21.12, -1.28, -1.28, 23.68, -2.56, -1.28, 24.96, -1.28, -1.28, 23.04, -1.28, -1.28, 23.04, -2.56, -1.28, 24.96, -5.44, -1.28, 23.04, -2.56, -1.28, 24.96, -5.44, -1.28, 24.96, -5.44, -1.28, 23.04, -3.2, -1.28, 25.6, -5.44, -1.28, 25.92, -3.2, -1.28, 24.96, -3.2, -1.28, 24.96, -5.44, -1.28, 25.92, -5.44, -1.28, 24.96, -8.32, -1.28, 16.96, -7.04, -1.28, 29.76, -8.32, -1.28, 29.76, -8.32, -1.28, 16.96, -7.04, -1.28, 16.96, -7.04, -1.28, 29.76, 1.92, -1.28, 29.76, -8.32, -1.28, 31.04, -8.32, -1.28, 29.76, 1.92, -1.28, 29.76, 1.92, -1.28, 31.04, -8.32, -1.28, 31.04, 1.92, -1.28, 15.68, -8.32, -1.28, 16.96, -8.32, -1.28, 15.68, 1.92, -1.28, 15.68, 1.92, -1.28, 16.96, -8.32, -1.28, 16.96, 1.92, -1.28, 25.92, 3.2, -1.28, 31.04, 1.92, -1.28, 31.04, 1.92, -1.28, 25.92, 3.2, -1.28, 25.92, 3.2, -1.28, 31.04, 3.2, -1.28, 20.8, 1.92, -1.28, 15.68, 3.2, -1.28, 15.68, 3.2, -1.28, 20.8, 1.92, -1.28, 20.8, 1.92, -1.28, 15.68, 5.12, -1.28, 20.8, 0, -1.28, 25.92, 0, -1.28, 20.8, 5.12, -1.28, 20.8, 5.12, -1.28, 25.92, 0, -1.28, 25.92, 15.36, -1.28, 22.72, 5.12, -1.28, 24, 5.12, -1.28, 22.72, 15.36, -1.28, 22.72, 15.36, -1.28, 24, 5.12, -1.28, 24, 15.36, -1.28, 17.6, 14.08, -1.28, 22.72, 14.08, -1.28, 17.6, 15.36, -1.28, 17.6, 15.36, -1.28, 22.72, 14.08, -1.28, 22.72, 29.28, 0, -30.56, 30.56, 0, -33.12, 29.28, 0, -33.12, 29.28, 0, -30.56, 30.56, 0, -30.56, 30.56, 0, -33.12, 25.6, 0, -30.56, 24.16, 0, -33.12, 24.16, 0, -30.56, 25.6, 0, -30.56, 25.6, 0, -33.12, 24.16, 0, -33.12, 25.6, 0, -30.56, 29.28, 0, -33.12, 25.6, 0, -33.12, 25.6, 0, -30.56, 29.28, 0, -30.56, 29.28, 0, -33.12, 30.08, -1.28, -24, 29.28, -1.28, -25.44, 30.56, -1.28, -25.44, 30.08, -1.28, -24, 29.18, -1.28, -24.91, 29.28, -1.28, -25.44, 30.56, -1.28, -30.56, 29.28, -1.28, -25.44, 29.28, -1.28, -30.56, 30.56, -1.28, -30.56, 30.56, -1.28, -25.44, 29.28, -1.28, -25.44, 24.16, -1.28, -18.88, 24.48, -1.28, -20.16, 25.39, -1.28, -19.25, 24.16, -1.28, -18.88, 24.16, -1.28, -20.16, 24.48, -1.28, -20.16, 30.08, -1.28, -24, 24.48, -1.28, -20.16, 29.18, -1.28, -24.91, 30.08, -1.28, -24, 25.39, -1.28, -19.25, 24.48, -1.28, -20.16, 19.04, -1.28, -18.88, 24.16, -1.28, -20.16, 24.16, -1.28, -18.88, 19.04, -1.28, -18.88, 19.04, -1.28, -20.16, 24.16, -1.28, -20.16, 17.76, -1.28, -20.16, 7.52, -1.28, -18.88, 7.52, -1.28, -20.16, 17.76, -1.28, -20.16, 17.76, -1.28, -18.88, 7.52, -1.28, -18.88, 19.04, -1.28, -11.84, 17.76, -1.28, -20.16, 19.04, -1.28, -20.16, 19.04, -1.28, -11.84, 17.76, -1.28, -11.84, 17.76, -1.28, -20.16, 12.16, -1.28, 15.04, 17.28, -1.28, 17.6, 12.16, -1.28, 17.6, 12.16, -1.28, 15.04, 17.28, -1.28, 15.04, 17.28, -1.28, 17.6, 17.28, 0, 15.04, 12.16, 0, 12.48, 17.28, 0, 12.48, 17.28, 0, 15.04, 12.16, 0, 15.04, 12.16, 0, 12.48, 21.28, 0, 8.16, 20.64, 0, 9.76, 20.96, 0, 8.48, 20.64, 0, 9.76, 20.29, 0, 8.48, 20.96, 0, 8.48, 20.64, 0, 9.76, 21.28, 0, 8.16, 20.96, 0, 9.76, 20.96, 0, 9.76, 21.28, 0, 8.16, 22.72, 0, 8.16, 21.28, 0, 8.16, 22.72, 0, 7.84, 22.72, 0, 8.16, 21.44, 0, 7.84, 22.72, 0, 7.84, 21.28, 0, 8.16, 20.29, 0, 8.48, 18.72, 0, 9.92, 18.53, 0, 9.46, 18.08, 0, 9.28, 20.29, 0, 8.48, 18.53, 0, 9.46, 20.29, 0, 8.48, 18.53, 0, 10.37, 18.72, 0, 9.92, 20.29, 0, 8.48, 18.07, 0, 12.32, 18.53, 0, 10.37, 15.52, 0, 9.76, 20.29, 0, 8.48, 18.08, 0, 9.28, 18.07, 0, 12.32, 18.08, 0, 10.56, 18.53, 0, 10.37, 17.62, 0, 9.46, 15.52, 0, 9.76, 18.08, 0, 9.28, 18.07, 0, 12.32, 17.62, 0, 10.37, 18.08, 0, 10.56, 15.52, 0, 9.76, 17.62, 0, 9.46, 15.5625, 0, 9.92, 17.62, 0, 9.46, 17.44, 0, 9.92, 15.5625, 0, 9.92, 18.07, 0, 12.32, 17.44, 0, 9.92, 17.62, 0, 10.37, 17.44, 0, 9.92, 18.07, 0, 12.32, 15.5625, 0, 9.92, 18.07, 0, 12.32, 15.86, 0, 11.04, 15.5625, 0, 9.92, 16.8, 0, 11.97, 15.86, 0, 11.04, 18.07, 0, 12.32, 19.36, 0, 11.97, 18.07, 0, 12.32, 20.29, 0, 8.48, 20.29, 0, 11.04, 19.36, 0, 11.97, 20.29, 0, 8.48, 20.64, 0, 9.76, 20.29, 0, 11.04, 20.29, 0, 8.48, 20.29, 0, 8.48, 15.52, 0, 9.76, 19.36, 0, 7.54, 15.52, 0, 9.76, 18.08, 0, 7.2, 19.36, 0, 7.54, 16.8, 0, 7.54, 18.08, 0, 7.2, 15.52, 0, 9.76, 15.86, 0, 8.48, 16.8, 0, 7.54, 15.52, 0, 9.76, 14.08, 0, 2.72, 15.36, 0, 12.48, 14.08, 0, 12.48, 14.08, 0, 2.72, 15.36, 0, 2.72, 15.36, 0, 12.48, 21.44, 0, 2.72, 22.72, 0, 7.84, 21.44, 0, 7.84, 21.44, 0, 2.72, 22.72, 0, 2.72, 22.72, 0, 7.84, 17.76, 0, 1.44, 14.08, 0, 2.72, 14.08, 0, 1.44, 17.76, 0, 1.44, 17.76, 0, 2.72, 14.08, 0, 2.72, 19.04, 0, 2.72, 22.72, 0, 1.44, 22.72, 0, 2.72, 19.04, 0, 2.72, 19.04, 0, 1.44, 22.72, 0, 1.44, 17.76, 0, -1.28, 19.04, 0, 0.16, 17.76, 0, 0.16, 17.76, 0, -1.28, 19.04, 0, -1.28, 19.04, 0, 0.16, 19.04, 0, 2.72, 17.76, 0, 2.72, 19.04, 0, 0.48, 17.76, 0, 2.72, 17.76, 0, 0.48, 19.04, 0, 0.48, 20.96, -1.28, -11.84, 15.84, -1.28, -6.56, 15.84, -1.28, -11.84, 20.96, -1.28, -11.84, 20.96, -1.28, -6.56, 15.84, -1.28, -6.56, 20.96, 0, -6.56, 15.84, 0, -1.28, 15.84, 0, -6.56, 20.96, 0, -6.56, 20.96, 0, -1.28, 15.84, 0, -1.28, -18.08, -1.28, -20.8, -18.08, -1.28, -18.24, -19.68, -1.28, -19.2, -18.08, -1.28, -20.8, -19.68, -1.28, -19.2, -19.68, -1.28, -19.84, -19.68, -1.28, -19.2, -18.08, -1.28, -18.24, -20.32, -1.28, -19.2, -18.08, -1.28, -18.24, -20.64, -1.28, -18.24, -20.32, -1.28, -19.2, -20.64, -1.28, -20.8, -18.08, -1.28, -20.8, -19.68, -1.28, -19.84, -20.64, -1.28, -20.8, -19.68, -1.28, -19.84, -20.64, -1.28, -19.84, -20.32, -1.28, -19.2, -20.64, -1.28, -18.24, -20.32, -1.28, -19.84, -20.32, -1.28, -19.84, -20.64, -1.28, -18.24, -20.64, -1.28, -19.84, -15.2, -1.28, -28.16, -15.2, -1.28, -28.8, -14.24, -1.28, -29.76, -14.24, -1.28, -27.2, -15.2, -1.28, -28.16, -14.24, -1.28, -29.76, -14.24, -1.28, -29.76, -15.2, -1.28, -28.8, -16.8, -1.28, -29.76, -15.2, -1.28, -28.8, -15.84, -1.28, -28.8, -16.8, -1.28, -29.76, -15.2, -1.28, -28.16, -14.24, -1.28, -27.2, -16.8, -1.28, -27.2, -16.8, -1.28, -29.76, -15.84, -1.28, -28.8, -16.8, -1.28, -28.16, -15.84, -1.28, -28.8, -15.84, -1.28, -28.16, -16.8, -1.28, -28.16, -16.8, -1.28, -28.16, -15.2, -1.28, -28.16, -16.8, -1.28, -27.2, -14.24, -1.28, -16.96, -14.24, -1.28, -14.4, -15.2, -1.28, -14.72, -14.24, -1.28, -16.96, -15.2, -1.28, -14.72, -15.2, -1.28, -15.36, -15.2, -1.28, -14.72, -14.24, -1.28, -14.4, -15.84, -1.28, -14.72, -14.24, -1.28, -14.4, -16.8, -1.28, -14.4, -15.84, -1.28, -14.72, -14.24, -1.28, -16.96, -15.2, -1.28, -15.36, -16.8, -1.28, -16.96, -15.2, -1.28, -15.36, -16.8, -1.28, -15.36, -16.8, -1.28, -16.96, -15.84, -1.28, -14.72, -16.8, -1.28, -14.4, -15.84, -1.28, -15.36, -15.84, -1.28, -15.36, -16.8, -1.28, -14.4, -16.8, -1.28, -15.36, -14.88, -1.28, -22.08, -16.16, -1.28, -27.2, -14.88, -1.28, -27.2, -14.88, -1.28, -22.08, -16.16, -1.28, -22.08, -16.16, -1.28, -27.2, -12.96, -1.28, -22.08, -18.08, -1.28, -16.96, -18.08, -1.28, -22.08, -12.96, -1.28, -22.08, -12.96, -1.28, -16.96, -18.08, -1.28, -16.96, -2.72, -1.28, -18.88, -12.96, -1.28, -20.16, -2.72, -1.28, -20.16, -2.72, -1.28, -18.88, -12.96, -1.28, -18.88, -12.96, -1.28, -20.16, 7.52, -1.28, -25.28, -2.72, -1.28, -13.76, -2.72, -1.28, -25.28, 7.52, -1.28, -25.28, 7.52, -1.28, -13.76, -2.72, -1.28, -13.76, 17.76, 1.28, 0.48, 17.76, -0.16, 0.16, 17.76, -0.16, 0.48, 17.76, 1.28, 0.48, 17.76, 1.28, 0.16, 17.76, -0.16, 0.16, 19.04, 1.28, 0.16, 19.04, -0.16, 0.48, 19.04, -0.16, 0.16, 19.04, 1.28, 0.16, 19.04, 1.28, 0.48, 19.04, -0.16, 0.48, 30.56, 0, -33.12, 29.28, -1.28, -33.12, 29.28, 0, -33.12, 30.56, 0, -33.12, 30.56, -1.28, -33.12, 29.28, -1.28, -33.12, 29.28, -1.28, -33.12, 25.6, 0, -33.12, 29.28, 0, -33.12, 29.28, -1.28, -33.12, 25.6, -1.28, -33.12, 25.6, 0, -33.12, 29.28, -1.28, -30.56, 25.6, 0, -30.56, 25.6, -1.28, -30.56, 29.28, -1.28, -30.56, 29.28, 0, -30.56, 25.6, 0, -30.56, 14.08, -1.28, 17.6, 12.16, 2.56, 17.6, 12.16, -1.28, 17.6, 14.08, -1.28, 17.6, 14.08, 2.56, 17.6, 12.16, 2.56, 17.6, 15.36, 2.56, 17.6, 17.28, -1.28, 17.6, 17.28, 2.56, 17.6, 15.36, 2.56, 17.6, 15.36, -1.28, 17.6, 17.28, -1.28, 17.6, 17.28, -1.28, 15.04, 17.28, 2.56, 17.6, 17.28, -1.28, 17.6, 17.28, -1.28, 15.04, 17.28, 2.56, 15.04, 17.28, 2.56, 17.6, 12.16, 2.56, 15.04, 12.16, -1.28, 17.6, 12.16, 2.56, 17.6, 12.16, 2.56, 15.04, 12.16, -1.28, 15.04, 12.16, -1.28, 17.6, 17.28, 0, 12.48, 15.36, 2.56, 12.48, 17.28, 2.56, 12.48, 17.28, 0, 12.48, 15.36, 0, 12.48, 15.36, 2.56, 12.48, 14.08, 0, 12.48, 12.16, 2.56, 12.48, 14.08, 2.56, 12.48, 14.08, 0, 12.48, 12.16, 0, 12.48, 12.16, 2.56, 12.48, 12.16, 0, 12.48, 12.16, 2.56, 15.04, 12.16, 2.56, 12.48, 12.16, 0, 12.48, 12.16, 0, 15.04, 12.16, 2.56, 15.04, 17.28, 2.56, 15.04, 17.28, 0, 12.48, 17.28, 2.56, 12.48, 17.28, 2.56, 15.04, 17.28, 0, 15.04, 17.28, 0, 12.48, 20.96, 0, 8.48, 21.12, 1.28, 8.32, 21.12, 0, 8.32, 20.96, 0, 8.48, 20.96, 1.28, 8.48, 21.12, 1.28, 8.32, 21.28, 1.28, 8.16, 21.12, 0, 8.32, 21.12, 1.28, 8.32, 21.28, 1.28, 8.16, 21.28, 0, 8.16, 21.12, 0, 8.32, 22.72, 0, 7.84, 22.72, 1.28, 8.16, 22.72, 0, 8.16, 22.72, 0, 7.84, 22.72, 1.28, 7.84, 22.72, 1.28, 8.16, 20.29, 0, 8.48, 20.96, 1.28, 8.48, 20.96, 0, 8.48, 20.29, 0, 8.48, 20.29, 1.28, 8.48, 20.96, 1.28, 8.48, 20.96, 1.28, 9.76, 22.72, 0, 8.16, 22.72, 1.28, 8.16, 20.96, 1.28, 9.76, 20.96, 0, 9.76, 22.72, 0, 8.16, 20.64, 1.28, 9.76, 20.96, 0, 9.76, 20.96, 1.28, 9.76, 20.64, 1.28, 9.76, 20.64, 0, 9.76, 20.96, 0, 9.76, 21.44, 1.28, 7.84, 21.28, 0, 8.16, 21.28, 1.28, 8.16, 21.44, 1.28, 7.84, 21.44, 0, 7.84, 21.28, 0, 8.16, 18.08, 0, 7.2, 19.36, 2.56, 7.54, 19.36, 0, 7.54, 18.08, 0, 7.2, 18.08, 2.56, 7.2, 19.36, 2.56, 7.54, 20.29, 2.56, 8.48, 19.36, 0, 7.54, 19.36, 2.56, 7.54, 20.29, 2.56, 8.48, 20.29, 0, 8.48, 19.36, 0, 7.54, 20.64, 2.56, 9.76, 20.29, 0, 11.04, 20.64, 0, 9.76, 20.64, 2.56, 9.76, 20.29, 2.56, 11.04, 20.29, 0, 11.04, 19.36, 2.56, 11.97, 20.29, 0, 11.04, 20.29, 2.56, 11.04, 19.36, 2.56, 11.97, 19.36, 0, 11.97, 20.29, 0, 11.04, 18.07, 2.56, 12.32, 19.36, 0, 11.97, 19.36, 2.56, 11.97, 18.07, 2.56, 12.32, 18.07, 0, 12.32, 19.36, 0, 11.97, 16.8, 2.56, 11.97, 18.07, 0, 12.32, 18.07, 2.56, 12.32, 16.8, 2.56, 11.97, 16.8, 0, 11.97, 18.07, 0, 12.32, 15.86, 2.56, 11.04, 16.8, 0, 11.97, 16.8, 2.56, 11.97, 15.86, 2.56, 11.04, 15.86, 0, 11.04, 16.8, 0, 11.97, 15.52, 2.56, 9.76, 15.86, 0, 11.04, 15.86, 2.56, 11.04, 15.52, 2.56, 9.76, 15.52, 0, 9.76, 15.86, 0, 11.04, 15.86, 2.56, 8.48, 15.52, 0, 9.76, 15.52, 2.56, 9.76, 15.86, 2.56, 8.48, 15.86, 0, 8.48, 15.52, 0, 9.76, 16.8, 2.56, 7.54, 15.86, 0, 8.48, 15.86, 2.56, 8.48, 16.8, 2.56, 7.54, 16.8, 0, 7.54, 15.86, 0, 8.48, 18.08, 2.56, 7.2, 16.8, 0, 7.54, 16.8, 2.56, 7.54, 18.08, 2.56, 7.2, 18.08, 0, 7.2, 16.8, 0, 7.54, 14.08, 1.28, 2.72, 14.08, 0, 12.48, 14.08, 1.28, 12.48, 14.08, 1.28, 2.72, 14.08, 0, 2.72, 14.08, 0, 12.48, 15.36, 0, 2.72, 15.36, 1.28, 12.48, 15.36, 0, 12.48, 15.36, 0, 2.72, 15.36, 1.28, 2.72, 15.36, 1.28, 12.48, 21.44, 1.28, 2.72, 21.44, 0, 7.84, 21.44, 1.28, 7.84, 21.44, 1.28, 2.72, 21.44, 0, 2.72, 21.44, 0, 7.84, 22.72, 0, 2.72, 22.72, 1.28, 7.84, 22.72, 0, 7.84, 22.72, 0, 2.72, 22.72, 1.28, 2.72, 22.72, 1.28, 7.84, 17.76, 1.28, 1.44, 14.08, 0, 1.44, 14.08, 1.28, 1.44, 17.76, 1.28, 1.44, 17.76, 0, 1.44, 14.08, 0, 1.44, 14.08, 1.28, 1.44, 14.08, 0, 2.72, 14.08, 1.28, 2.72, 14.08, 1.28, 1.44, 14.08, 0, 1.44, 14.08, 0, 2.72, 17.76, 0, 2.72, 15.36, 1.28, 2.72, 15.36, 0, 2.72, 17.76, 0, 2.72, 17.76, 1.28, 2.72, 15.36, 1.28, 2.72, 19.04, 0, 1.44, 22.72, 1.28, 1.44, 22.72, 0, 1.44, 19.04, 0, 1.44, 19.04, 1.28, 1.44, 22.72, 1.28, 1.44, 19.04, 1.28, 2.72, 21.44, 0, 2.72, 21.44, 1.28, 2.72, 19.04, 1.28, 2.72, 19.04, 0, 2.72, 21.44, 0, 2.72, 22.72, 1.28, 2.72, 22.72, 0, 1.44, 22.72, 1.28, 1.44, 22.72, 1.28, 2.72, 22.72, 0, 2.72, 22.72, 0, 1.44, 17.76, 1.28, -1.28, 17.76, 0, 0.16, 17.76, 1.28, 0.16, 17.76, 1.28, -1.28, 17.76, 0, -1.28, 17.76, 0, 0.16, 19.04, 1.28, 1.44, 19.04, 0, 0.48, 19.04, 1.28, 0.48, 19.04, 1.28, 1.44, 19.04, 0, 1.44, 19.04, 0, 0.48, 17.76, 1.28, 0.48, 17.76, 0, 1.44, 17.76, 1.28, 1.44, 17.76, 1.28, 0.48, 17.76, 0, 0.48, 17.76, 0, 1.44, 17.76, 1.28, 2.72, 19.04, 0, 2.72, 19.04, 1.28, 2.72, 17.76, 1.28, 2.72, 17.76, 0, 2.72, 19.04, 0, 2.72, 19.04, 0, -1.28, 19.04, 1.28, 0.16, 19.04, 0, 0.16, 19.04, 0, -1.28, 19.04, 1.28, -1.28, 19.04, 1.28, 0.16, 19.04, 1.28, 0.48, 17.76, 1.28, 0.16, 17.76, 1.28, 0.48, 19.04, 1.28, 0.48, 19.04, 1.28, 0.16, 17.76, 1.28, 0.16, 20.64, 1.28, 9.76, 21.28, 1.28, 8.16, 20.96, 1.28, 8.48, 20.29, 1.28, 8.48, 20.64, 1.28, 9.76, 20.96, 1.28, 8.48, 21.28, 1.28, 8.16, 20.64, 1.28, 9.76, 20.96, 1.28, 9.76, 21.28, 1.28, 8.16, 20.96, 1.28, 9.76, 22.72, 1.28, 8.16, 22.72, 1.28, 7.84, 21.28, 1.28, 8.16, 22.72, 1.28, 8.16, 22.72, 1.28, 7.84, 21.44, 1.28, 7.84, 21.28, 1.28, 8.16, 15.36, 1.28, 2.72, 14.08, 1.28, 12.48, 15.36, 1.28, 12.48, 15.36, 1.28, 2.72, 14.08, 1.28, 2.72, 14.08, 1.28, 12.48, 22.72, 1.28, 2.72, 21.44, 1.28, 7.84, 22.72, 1.28, 7.84, 22.72, 1.28, 2.72, 21.44, 1.28, 2.72, 21.44, 1.28, 7.84, 17.76, 1.28, 2.72, 14.08, 1.28, 1.44, 14.08, 1.28, 2.72, 17.76, 1.28, 2.72, 17.76, 1.28, 1.44, 14.08, 1.28, 1.44, 19.04, 1.28, 1.44, 22.72, 1.28, 2.72, 22.72, 1.28, 1.44, 19.04, 1.28, 1.44, 19.04, 1.28, 2.72, 22.72, 1.28, 2.72, 19.04, 1.28, 0.16, 17.76, 1.28, -1.28, 17.76, 1.28, 0.16, 19.04, 1.28, -1.28, 17.76, 1.28, -1.28, 19.04, 1.28, 0.16, 17.76, 1.28, 2.72, 19.04, 1.28, 2.72, 19.04, 1.28, 0.48, 17.76, 1.28, 0.48, 17.76, 1.28, 2.72, 19.04, 1.28, 0.48, 7.52, 1.28, -13.76, -2.72, 1.28, -25.28, -2.72, 1.28, -13.76, 7.52, 1.28, -13.76, 7.52, 1.28, -25.28, -2.72, 1.28, -25.28, 18.72, 2.56, 9.92, 20.29, 2.56, 8.48, 18.53, 2.56, 9.46, 20.29, 2.56, 8.48, 18.08, 2.56, 9.28, 18.53, 2.56, 9.46, 18.53, 2.56, 10.37, 20.29, 2.56, 8.48, 18.72, 2.56, 9.92, 18.07, 2.56, 12.32, 20.29, 2.56, 8.48, 18.53, 2.56, 10.37, 20.29, 2.56, 8.48, 15.52, 2.56, 9.76, 18.08, 2.56, 9.28, 18.08, 2.56, 10.56, 18.07, 2.56, 12.32, 18.53, 2.56, 10.37, 18.08, 2.56, 9.28, 15.52, 2.56, 9.76, 17.62, 2.56, 9.46, 17.62, 2.56, 10.37, 18.07, 2.56, 12.32, 18.08, 2.56, 10.56, 17.62, 2.56, 9.46, 15.52, 2.56, 9.76, 15.5625, 2.56, 9.92, 17.44, 2.56, 9.92, 17.62, 2.56, 9.46, 15.5625, 2.56, 9.92, 17.44, 2.56, 9.92, 18.07, 2.56, 12.32, 17.62, 2.56, 10.37, 18.07, 2.56, 12.32, 17.44, 2.56, 9.92, 15.5625, 2.56, 9.92, 15.86, 2.56, 11.04, 18.07, 2.56, 12.32, 15.5625, 2.56, 9.92, 15.86, 2.56, 11.04, 16.8, 2.56, 11.97, 18.07, 2.56, 12.32, 20.29, 2.56, 8.48, 18.07, 2.56, 12.32, 19.36, 2.56, 11.97, 20.29, 2.56, 8.48, 19.36, 2.56, 11.97, 20.29, 2.56, 11.04, 20.64, 2.56, 9.76, 20.29, 2.56, 8.48, 20.29, 2.56, 11.04, 15.52, 2.56, 9.76, 20.29, 2.56, 8.48, 19.36, 2.56, 7.54, 18.08, 2.56, 7.2, 15.52, 2.56, 9.76, 19.36, 2.56, 7.54, 18.08, 2.56, 7.2, 16.8, 2.56, 7.54, 15.52, 2.56, 9.76, 16.8, 2.56, 7.54, 15.86, 2.56, 8.48, 15.52, 2.56, 9.76, 29.28, -1.28, -30.56, 25.6, -1.28, -33.12, 29.28, -1.28, -33.12, 29.28, -1.28, -30.56, 25.6, -1.28, -30.56, 25.6, -1.28, -33.12, -18.08, 0, -20.8, -20.64, -1.28, -20.8, -20.64, 0, -20.8, -18.08, 0, -20.8, -18.08, -1.28, -20.8, -20.64, -1.28, -20.8, -20.64, -1.28, -18.24, -20.64, 0, -20.8, -20.64, -1.28, -20.8, -20.64, -1.28, -18.24, -20.64, 0, -18.24, -20.64, 0, -20.8, -18.08, -1.28, -18.24, -20.64, 0, -18.24, -20.64, -1.28, -18.24, -18.08, -1.28, -18.24, -18.08, 0, -18.24, -20.64, 0, -18.24, -14.24, 0, -29.76, -16.8, -1.28, -29.76, -16.8, 0, -29.76, -14.24, 0, -29.76, -14.24, -1.28, -29.76, -16.8, -1.28, -29.76, -16.8, -1.28, -27.2, -16.8, 0, -29.76, -16.8, -1.28, -29.76, -16.8, -1.28, -27.2, -16.8, 0, -27.2, -16.8, 0, -29.76, -14.88, 0, -27.2, -14.24, -1.28, -27.2, -14.24, 0, -27.2, -14.88, 0, -27.2, -14.88, -1.28, -27.2, -14.24, -1.28, -27.2, -14.24, 0, -27.2, -14.24, -1.28, -29.76, -14.24, 0, -29.76, -14.24, 0, -27.2, -14.24, -1.28, -27.2, -14.24, -1.28, -29.76, -16.16, -1.28, -27.2, -16.8, 0, -27.2, -16.8, -1.28, -27.2, -16.16, -1.28, -27.2, -16.16, 0, -27.2, -16.8, 0, -27.2, -16.8, 0, -16.96, -16.8, -1.28, -14.4, -16.8, 0, -14.4, -16.8, 0, -16.96, -16.8, -1.28, -16.96, -16.8, -1.28, -14.4, -14.24, -1.28, -14.4, -16.8, 0, -14.4, -16.8, -1.28, -14.4, -14.24, -1.28, -14.4, -14.24, 0, -14.4, -16.8, 0, -14.4, -14.24, -1.28, -16.96, -14.24, 0, -14.4, -14.24, -1.28, -14.4, -14.24, -1.28, -16.96, -14.24, 0, -16.96, -14.24, 0, -14.4, -16.16, -1.28, -22.08, -16.16, 0, -27.2, -16.16, -1.28, -27.2, -16.16, -1.28, -22.08, -16.16, 0, -22.08, -16.16, 0, -27.2, -14.88, 0, -22.08, -14.88, -1.28, -27.2, -14.88, 0, -27.2, -14.88, 0, -22.08, -14.88, -1.28, -22.08, -14.88, -1.28, -27.2, -18.08, 0, -22.08, -18.08, -1.28, -20.8, -18.08, 0, -20.8, -18.08, 0, -22.08, -18.08, -1.28, -22.08, -18.08, -1.28, -20.8, -18.08, 0, -16.96, -16.8, -1.28, -16.96, -16.8, 0, -16.96, -18.08, 0, -16.96, -18.08, -1.28, -16.96, -16.8, -1.28, -16.96, -12.96, 0, -22.08, -14.88, -1.28, -22.08, -14.88, 0, -22.08, -12.96, 0, -22.08, -12.96, -1.28, -22.08, -14.88, -1.28, -22.08, -16.16, 0, -22.08, -18.08, -1.28, -22.08, -18.08, 0, -22.08, -16.16, 0, -22.08, -16.16, -1.28, -22.08, -18.08, -1.28, -22.08, -18.08, 0, -18.24, -18.08, -1.28, -16.96, -18.08, 0, -16.96, -18.08, 0, -18.24, -18.08, -1.28, -18.24, -18.08, -1.28, -16.96, -12.96, -1.28, -16.96, -14.24, 0, -16.96, -14.24, -1.28, -16.96, -12.96, -1.28, -16.96, -12.96, 0, -16.96, -14.24, 0, -16.96, -12.96, 0, -20.16, -12.96, -1.28, -22.08, -12.96, 0, -22.08, -12.96, 0, -20.16, -12.96, -1.28, -20.16, -12.96, -1.28, -22.08, -12.96, -1.28, -18.88, -12.96, 0, -16.96, -12.96, -1.28, -16.96, -12.96, -1.28, -18.88, -12.96, 0, -18.88, -12.96, 0, -16.96, -2.72, 0, -20.16, -12.96, -1.28, -20.16, -12.96, 0, -20.16, -2.72, 0, -20.16, -2.72, -1.28, -20.16, -12.96, -1.28, -20.16, -12.96, 0, -18.88, -2.72, -1.28, -18.88, -2.72, 0, -18.88, -12.96, 0, -18.88, -12.96, -1.28, -18.88, -2.72, -1.28, -18.88, 30.56, 0, -30.56, 30.56, -1.28, -33.12, 30.56, 0, -33.12, 30.56, 0, -30.56, 30.56, -1.28, -30.56, 30.56, -1.28, -33.12, 30.08, 0, -24, 30.56, -1.28, -25.44, 30.56, 0, -25.44, 30.08, 0, -24, 30.08, -1.28, -24, 30.56, -1.28, -25.44, 29.18, -1.28, -24.91, 29.28, 0, -25.44, 29.28, -1.28, -25.44, 29.18, -1.28, -24.91, 29.18, 0, -24.91, 29.28, 0, -25.44, 29.28, 0, -30.56, 29.28, -1.28, -25.44, 29.28, 0, -25.44, 29.28, 0, -30.56, 29.28, -1.28, -30.56, 29.28, -1.28, -25.44, 30.56, 0, -25.44, 30.56, -1.28, -30.56, 30.56, 0, -30.56, 30.56, 0, -25.44, 30.56, -1.28, -25.44, 30.56, -1.28, -30.56, 24.16, 0, -18.88, 25.39, -1.28, -19.25, 25.39, 0, -19.25, 24.16, 0, -18.88, 24.16, -1.28, -18.88, 25.39, -1.28, -19.25, 24.16, -1.28, -20.16, 24.48, 0, -20.16, 24.48, -1.28, -20.16, 24.16, -1.28, -20.16, 24.16, 0, -20.16, 24.48, 0, -20.16, 29.18, 0, -24.91, 24.48, -1.28, -20.16, 24.48, 0, -20.16, 29.18, 0, -24.91, 29.18, -1.28, -24.91, 24.48, -1.28, -20.16, 25.39, 0, -19.25, 30.08, -1.28, -24, 30.08, 0, -24, 25.39, 0, -19.25, 25.39, -1.28, -19.25, 30.08, -1.28, -24, 19.04, -1.28, -20.16, 24.16, 0, -20.16, 24.16, -1.28, -20.16, 19.04, -1.28, -20.16, 19.04, 0, -20.16, 24.16, 0, -20.16, 19.04, 0, -18.88, 24.16, -1.28, -18.88, 24.16, 0, -18.88, 19.04, 0, -18.88, 19.04, -1.28, -18.88, 24.16, -1.28, -18.88, 17.76, 0, -20.16, 7.52, -1.28, -20.16, 7.52, 0, -20.16, 17.76, 0, -20.16, 17.76, -1.28, -20.16, 7.52, -1.28, -20.16, 17.76, -1.28, -18.88, 7.52, 0, -18.88, 7.52, -1.28, -18.88, 17.76, -1.28, -18.88, 17.76, 0, -18.88, 7.52, 0, -18.88, 19.04, 0, -20.16, 17.76, -1.28, -20.16, 17.76, 0, -20.16, 19.04, 0, -20.16, 19.04, -1.28, -20.16, 17.76, -1.28, -20.16, 17.76, -1.28, -18.88, 17.76, 0, -11.84, 17.76, 0, -18.88, 17.76, -1.28, -18.88, 17.76, -1.28, -11.84, 17.76, 0, -11.84, 19.04, 0, -11.84, 19.04, -1.28, -18.88, 19.04, 0, -18.88, 19.04, 0, -11.84, 19.04, -1.28, -11.84, 19.04, -1.28, -18.88, 20.96, 2.56, -11.84, 19.04, -1.28, -11.84, 19.04, 2.56, -11.84, 20.96, 2.56, -11.84, 20.96, -1.28, -11.84, 19.04, -1.28, -11.84, 15.84, -1.28, -11.84, 17.76, 2.56, -11.84, 17.76, -1.28, -11.84, 15.84, -1.28, -11.84, 15.84, 2.56, -11.84, 17.76, 2.56, -11.84, 15.84, 2.56, -6.56, 15.84, -1.28, -11.84, 15.84, -1.28, -6.56, 15.84, 2.56, -6.56, 15.84, 2.56, -11.84, 15.84, -1.28, -11.84, 20.96, 2.56, -6.56, 20.96, -1.28, -11.84, 20.96, 2.56, -11.84, 20.96, 2.56, -6.56, 20.96, -1.28, -6.56, 20.96, -1.28, -11.84, 15.84, 2.56, -1.28, 17.76, 0, -1.28, 17.76, 2.56, -1.28, 15.84, 2.56, -1.28, 15.84, 0, -1.28, 17.76, 0, -1.28, 15.84, 2.56, -6.56, 15.84, 0, -1.28, 15.84, 2.56, -1.28, 15.84, 2.56, -6.56, 15.84, 0, -6.56, 15.84, 0, -1.28, 20.96, 0, -1.28, 19.04, 2.56, -1.28, 19.04, 0, -1.28, 20.96, 0, -1.28, 20.96, 2.56, -1.28, 19.04, 2.56, -1.28, 20.96, 2.56, -1.28, 20.96, 0, -6.56, 20.96, 2.56, -6.56, 20.96, 2.56, -1.28, 20.96, 0, -1.28, 20.96, 0, -6.56, -19.68, 0, -19.2, -20.32, 0, -19.84, -20.32, 0, -19.2, -19.68, 0, -19.2, -19.68, 0, -19.84, -20.32, 0, -19.84, -15.2, 0, -14.72, -15.84, 0, -15.36, -15.84, 0, -14.72, -15.2, 0, -14.72, -15.2, 0, -15.36, -15.84, 0, -15.36, -1.28, 1.28, 23.04, -0.64, 1.28, 23.68, -0.64, 1.28, 23.04, -1.28, 1.28, 23.04, -1.28, 1.28, 23.68, -0.64, 1.28, 23.68, -3.2, 1.28, 21.12, -2.56, 1.28, 21.76, -2.56, 1.28, 21.12, -3.2, 1.28, 21.12, -3.2, 1.28, 21.76, -2.56, 1.28, 21.76, -3.2, 1.28, 24.96, -2.56, 1.28, 25.6, -2.56, 1.28, 24.96, -3.2, 1.28, 24.96, -3.2, 1.28, 25.6, -2.56, 1.28, 25.6, -12.16, 0, 23.04, -11.52, 0, 23.68, -11.52, 0, 23.04, -12.16, 0, 23.04, -12.16, 0, 23.68, -11.52, 0, 23.68, -11.52, 0, 23.68, -9.6, 0, 24.64, -11.52, 0, 23.04, -12.16, 0, 24.64, -9.6, 0, 24.64, -11.52, 0, 23.68, -9.6, 0, 24.64, -9.6, 0, 22.08, -11.52, 0, 23.04, -9.6, 0, 22.08, -12.16, 0, 22.08, -11.52, 0, 23.04, -12.16, 0, 22.08, -12.16, 0, 23.04, -11.52, 0, 23.04, -12.16, 0, 23.68, -12.16, 0, 24.64, -11.52, 0, 23.68, -8.32, 0, 24, -9.6, 0, 22.72, -9.6, 0, 24, -8.32, 0, 24, -8.32, 0, 22.72, -9.6, 0, 22.72, -7.04, 0, 22.72, -5.44, 0, 24, -5.44, 0, 22.72, -7.04, 0, 22.72, -7.04, 0, 24, -5.44, 0, 24, -0.64, 1.28, 23.04, -0.32, 1.28, 20.8, -2.56, 1.28, 21.76, -0.32, 1.28, 20.8, -0.64, 1.28, 23.04, -0.64, 1.28, 23.68, -0.32, 1.28, 25.92, -0.32, 1.28, 20.8, -0.64, 1.28, 23.68, -3.2, 1.28, 21.76, -0.64, 1.28, 23.04, -2.56, 1.28, 21.76, -2.56, 1.28, 25.6, -0.32, 1.28, 25.92, -0.64, 1.28, 23.68, -0.32, 1.28, 20.8, -2.56, 1.28, 21.12, -2.56, 1.28, 21.76, -5.44, 1.28, 21.12, -0.64, 1.28, 23.04, -3.2, 1.28, 21.76, -1.28, 1.28, 23.68, -2.56, 1.28, 25.6, -0.64, 1.28, 23.68, -1.28, 1.28, 23.68, -2.56, 1.28, 24.96, -2.56, 1.28, 25.6, -3.2, 1.28, 25.6, -0.32, 1.28, 25.92, -2.56, 1.28, 25.6, -5.44, 1.28, 25.92, -0.32, 1.28, 25.92, -3.2, 1.28, 25.6, -0.32, 1.28, 20.8, -5.44, 1.28, 20.8, -2.56, 1.28, 21.12, -5.44, 1.28, 20.8, -5.44, 1.28, 21.12, -2.56, 1.28, 21.12, -5.44, 1.28, 21.12, -3.2, 1.28, 21.76, -3.2, 1.28, 21.12, -5.44, 1.28, 21.12, -5.44, 1.28, 23.04, -0.64, 1.28, 23.04, -1.28, 1.28, 23.04, -2.56, 1.28, 24.96, -1.28, 1.28, 23.68, -5.44, 1.28, 23.04, -2.56, 1.28, 24.96, -1.28, 1.28, 23.04, -5.44, 1.28, 23.04, -5.44, 1.28, 24.96, -2.56, 1.28, 24.96, -3.2, 1.28, 24.96, -5.44, 1.28, 25.92, -3.2, 1.28, 25.6, -5.44, 1.28, 25.92, -3.2, 1.28, 24.96, -5.44, 1.28, 24.96, -7.04, 0, 16.96, -8.32, 0, 29.76, -7.04, 0, 29.76, -7.04, 0, 16.96, -8.32, 0, 16.96, -8.32, 0, 29.76, 1.92, 0, 31.04, -8.32, 0, 29.76, -8.32, 0, 31.04, 1.92, 0, 31.04, 1.92, 0, 29.76, -8.32, 0, 29.76, 1.92, 0, 16.96, -8.32, 0, 15.68, -8.32, 0, 16.96, 1.92, 0, 16.96, 1.92, 0, 15.68, -8.32, 0, 15.68, 3.2, 0, 31.04, 1.92, 0, 25.92, 1.92, 0, 31.04, 3.2, 0, 31.04, 3.2, 0, 25.92, 1.92, 0, 25.92, 3.2, 0, 20.8, 1.92, 0, 15.68, 1.92, 0, 20.8, 3.2, 0, 20.8, 3.2, 0, 15.68, 1.92, 0, 15.68, 5.12, 1.28, 25.92, 0, 1.28, 20.8, 0, 1.28, 25.92, 5.12, 1.28, 25.92, 5.12, 1.28, 20.8, 0, 1.28, 20.8, 15.36, 0, 24, 5.12, 0, 22.72, 5.12, 0, 24, 15.36, 0, 24, 15.36, 0, 22.72, 5.12, 0, 22.72, 15.36, 0, 17.6, 14.08, 0, 22.72, 15.36, 0, 22.72, 15.36, 0, 17.6, 14.08, 0, 17.6, 14.08, 0, 22.72, 30.56, -1.28, -30.56, 29.28, -1.28, -33.12, 30.56, -1.28, -33.12, 30.56, -1.28, -30.56, 29.28, -1.28, -30.56, 29.28, -1.28, -33.12, 29.18, 0, -24.91, 30.56, 0, -25.44, 29.28, 0, -25.44, 29.18, 0, -24.91, 30.08, 0, -24, 30.56, 0, -25.44, 30.56, 0, -25.44, 29.28, 0, -30.56, 29.28, 0, -25.44, 30.56, 0, -25.44, 30.56, 0, -30.56, 29.28, 0, -30.56, 24.16, 0, -20.16, 25.39, 0, -19.25, 24.48, 0, -20.16, 24.16, 0, -20.16, 24.16, 0, -18.88, 25.39, 0, -19.25, 25.39, 0, -19.25, 29.18, 0, -24.91, 24.48, 0, -20.16, 25.39, 0, -19.25, 30.08, 0, -24, 29.18, 0, -24.91, 19.04, 0, -20.16, 24.16, 0, -18.88, 24.16, 0, -20.16, 19.04, 0, -20.16, 19.04, 0, -18.88, 24.16, 0, -18.88, 17.76, 0, -18.88, 7.52, 0, -20.16, 7.52, 0, -18.88, 17.76, 0, -18.88, 17.76, 0, -20.16, 7.52, 0, -20.16, 17.76, 0, -11.84, 19.04, 0, -20.16, 17.76, 0, -20.16, 17.76, 0, -11.84, 19.04, 0, -11.84, 19.04, 0, -20.16, 17.28, 2.56, 15.04, 12.16, 2.56, 17.6, 17.28, 2.56, 17.6, 17.28, 2.56, 15.04, 12.16, 2.56, 15.04, 12.16, 2.56, 17.6, 17.28, 2.56, 15.04, 12.16, 2.56, 12.48, 12.16, 2.56, 15.04, 17.28, 2.56, 15.04, 17.28, 2.56, 12.48, 12.16, 2.56, 12.48, -15.84, 0, -28.16, -15.2, 0, -28.8, -15.84, 0, -28.8, -15.84, 0, -28.16, -15.2, 0, -28.16, -15.2, 0, -28.8, -12.16, 0, 23.68, -12.16, -1.44, 23.04, -12.16, -1.44, 23.68, -12.16, 0, 23.68, -12.16, 0, 23.04, -12.16, -1.44, 23.04, -12.16, 0, 22.08, -12.16, -1.28, 23.04, -12.16, 0, 23.04, -12.16, 0, 22.08, -12.16, -1.28, 22.08, -12.16, -1.28, 23.04, -9.6, 0, 22.08, -12.16, -1.28, 22.08, -12.16, 0, 22.08, -9.6, 0, 22.08, -9.6, -1.28, 22.08, -12.16, -1.28, 22.08, -12.16, -1.28, 24.64, -12.16, 0, 23.68, -12.16, -1.28, 23.68, -12.16, -1.28, 24.64, -12.16, 0, 24.64, -12.16, 0, 23.68, -9.6, -1.28, 24.64, -12.16, 0, 24.64, -12.16, -1.28, 24.64, -9.6, -1.28, 24.64, -9.6, 0, 24.64, -12.16, 0, 24.64, -9.6, 0, 22.72, -9.6, -1.28, 22.08, -9.6, 0, 22.08, -9.6, 0, 22.72, -9.6, -1.28, 22.72, -9.6, -1.28, 22.08, -9.6, -1.28, 24, -9.6, 0, 24.64, -9.6, -1.28, 24.64, -9.6, -1.28, 24, -9.6, 0, 24, -9.6, 0, 24.64, -8.32, 0, 22.72, -9.6, -1.28, 22.72, -9.6, 0, 22.72, -8.32, 0, 22.72, -8.32, -1.28, 22.72, -9.6, -1.28, 22.72, -8.32, -1.28, 24, -9.6, 0, 24, -9.6, -1.28, 24, -8.32, -1.28, 24, -8.32, 0, 24, -9.6, 0, 24, -2.72, 0, -20.16, -2.72, 1.28, -18.88, -2.72, 1.28, -20.16, -2.72, 0, -20.16, -2.72, 0, -18.88, -2.72, 1.28, -18.88, 7.52, 0, -18.88, 7.52, 1.28, -20.16, 7.52, 1.28, -18.88, 7.52, 0, -18.88, 7.52, 0, -20.16, 7.52, 1.28, -20.16, -7.04, -1.28, 22.72, -5.44, 0, 22.72, -5.44, -1.28, 22.72, -7.04, -1.28, 22.72, -7.04, 0, 22.72, -5.44, 0, 22.72, -7.04, 0, 24, -5.44, -1.28, 24, -5.44, 0, 24, -7.04, 0, 24, -7.04, -1.28, 24, -5.44, -1.28, 24, -5.44, 1.28, 20.8, -5.44, -1.28, 22.72, -5.44, 1.28, 22.72, -5.44, 1.28, 20.8, -5.44, -1.28, 20.8, -5.44, -1.28, 22.72, -0.32, 1.28, 20.8, -5.44, -1.28, 20.8, -5.44, 1.28, 20.8, -0.32, 1.28, 20.8, -0.32, -1.28, 20.8, -5.44, -1.28, 20.8, -5.44, -1.28, 25.92, -5.44, 1.28, 24, -5.44, -1.28, 24, -5.44, -1.28, 25.92, -5.44, 1.28, 25.92, -5.44, 1.28, 24, -0.32, -1.28, 25.92, -5.44, 1.28, 25.92, -5.44, -1.28, 25.92, -0.32, -1.28, 25.92, -0.32, 1.28, 25.92, -5.44, 1.28, 25.92, -0.32, 1.28, 25.92, -0.32, -1.28, 20.8, -0.32, 1.28, 20.8, -0.32, 1.28, 25.92, -0.32, -1.28, 25.92, -0.32, -1.28, 20.8, -8.32, 0, 16.96, -8.32, -1.28, 22.72, -8.32, 0, 22.72, -8.32, 0, 16.96, -8.32, -1.28, 16.96, -8.32, -1.28, 22.72, -7.04, 0, 29.76, -7.04, -1.28, 24, -7.04, 0, 24, -7.04, 0, 29.76, -7.04, -1.28, 29.76, -7.04, -1.28, 24, -8.32, -1.28, 29.76, -8.32, 0, 24, -8.32, -1.28, 24, -8.32, -1.28, 29.76, -8.32, 0, 29.76, -8.32, 0, 24, -7.04, -1.28, 16.96, -7.04, 0, 22.72, -7.04, -1.28, 22.72, -7.04, -1.28, 16.96, -7.04, 0, 16.96, -7.04, 0, 22.72, 1.92, 0, 29.76, -7.04, -1.28, 29.76, -7.04, 0, 29.76, 1.92, 0, 29.76, 1.92, -1.28, 29.76, -7.04, -1.28, 29.76, -8.32, -1.28, 31.04, -8.32, 0, 29.76, -8.32, -1.28, 29.76, -8.32, -1.28, 31.04, -8.32, 0, 31.04, -8.32, 0, 29.76, 1.92, -1.28, 31.04, -8.32, 0, 31.04, -8.32, -1.28, 31.04, 1.92, -1.28, 31.04, 1.92, 0, 31.04, -8.32, 0, 31.04, 1.92, 0, 15.68, -8.32, -1.28, 15.68, -8.32, 0, 15.68, 1.92, 0, 15.68, 1.92, -1.28, 15.68, -8.32, -1.28, 15.68, -8.32, 0, 15.68, -8.32, -1.28, 16.96, -8.32, 0, 16.96, -8.32, 0, 15.68, -8.32, -1.28, 15.68, -8.32, -1.28, 16.96, 1.92, -1.28, 16.96, -7.04, 0, 16.96, -7.04, -1.28, 16.96, 1.92, -1.28, 16.96, 1.92, 0, 16.96, -7.04, 0, 16.96, 1.92, 0, 25.92, 1.92, -1.28, 29.76, 1.92, 0, 29.76, 1.92, 0, 25.92, 1.92, -1.28, 25.92, 1.92, -1.28, 29.76, 3.2, -1.28, 31.04, 1.92, 0, 31.04, 1.92, -1.28, 31.04, 3.2, -1.28, 31.04, 3.2, 0, 31.04, 1.92, 0, 31.04, 3.2, -1.28, 31.04, 3.2, 0, 25.92, 3.2, 0, 31.04, 3.2, -1.28, 31.04, 3.2, -1.28, 25.92, 3.2, 0, 25.92, 3.2, 0, 15.68, 1.92, -1.28, 15.68, 1.92, 0, 15.68, 3.2, 0, 15.68, 3.2, -1.28, 15.68, 1.92, -1.28, 15.68, 1.92, -1.28, 16.96, 1.92, 0, 20.8, 1.92, 0, 16.96, 1.92, -1.28, 16.96, 1.92, -1.28, 20.8, 1.92, 0, 20.8, 3.2, 0, 20.8, 3.2, -1.28, 15.68, 3.2, 0, 15.68, 3.2, 0, 20.8, 3.2, -1.28, 20.8, 3.2, -1.28, 15.68, 0, 1.28, 25.92, 1.92, -1.28, 25.92, 1.92, 1.28, 25.92, 0, 1.28, 25.92, 0, -1.28, 25.92, 1.92, -1.28, 25.92, 5.12, 1.28, 20.8, 3.2, -1.28, 20.8, 3.2, 1.28, 20.8, 5.12, 1.28, 20.8, 5.12, -1.28, 20.8, 3.2, -1.28, 20.8, 0, -1.28, 20.8, 1.92, 1.28, 20.8, 1.92, -1.28, 20.8, 0, -1.28, 20.8, 0, 1.28, 20.8, 1.92, 1.28, 20.8, 0, 1.28, 20.8, 0, -1.28, 25.92, 0, 1.28, 25.92, 0, 1.28, 20.8, 0, -1.28, 20.8, 0, -1.28, 25.92, 5.12, -1.28, 25.92, 3.2, 1.28, 25.92, 3.2, -1.28, 25.92, 5.12, -1.28, 25.92, 5.12, 1.28, 25.92, 3.2, 1.28, 25.92, 5.12, 1.28, 22.72, 5.12, -1.28, 20.8, 5.12, 1.28, 20.8, 5.12, 1.28, 22.72, 5.12, -1.28, 22.72, 5.12, -1.28, 20.8, 5.12, -1.28, 25.92, 5.12, 1.28, 24, 5.12, 1.28, 25.92, 5.12, -1.28, 25.92, 5.12, -1.28, 24, 5.12, 1.28, 24, 14.08, 0, 22.72, 5.12, -1.28, 22.72, 5.12, 0, 22.72, 14.08, 0, 22.72, 14.08, -1.28, 22.72, 5.12, -1.28, 22.72, 15.36, -1.28, 24, 5.12, 0, 24, 5.12, -1.28, 24, 15.36, -1.28, 24, 15.36, 0, 24, 5.12, 0, 24, 15.36, -1.28, 22.72, 15.36, 0, 24, 15.36, -1.28, 24, 15.36, -1.28, 22.72, 15.36, 0, 22.72, 15.36, 0, 24, 14.08, 0, 17.6, 14.08, -1.28, 22.72, 14.08, 0, 22.72, 14.08, 0, 17.6, 14.08, -1.28, 17.6, 14.08, -1.28, 22.72, 15.36, 0, 17.6, 15.36, -1.28, 22.72, 15.36, -1.28, 17.6, 15.36, 0, 17.6, 15.36, 0, 22.72, 15.36, -1.28, 22.72, 25.6, -1.28, -30.56, 25.6, -10.24, -33.12, 25.6, -1.28, -33.12, 25.6, -1.28, -30.56, 25.6, -10.24, -30.56, 25.6, -10.24, -33.12, 14.08, 2.56, 17.6, 15.36, 0, 17.6, 15.36, 2.56, 17.6, 14.08, 2.56, 17.6, 14.08, 0, 17.6, 15.36, 0, 17.6, 17.28, 0, 15.04, 12.16, -1.28, 15.04, 12.16, 0, 15.04, 17.28, 0, 15.04, 17.28, -1.28, 15.04, 12.16, -1.28, 15.04, 20.64, 2.56, 9.76, 20.29, 1.28, 8.48, 20.29, 2.56, 8.48, 20.64, 2.56, 9.76, 20.64, 1.28, 9.76, 20.29, 1.28, 8.48, 17.76, 2.56, -11.84, 19.04, 0, -11.84, 17.76, 0, -11.84, 17.76, 2.56, -11.84, 19.04, 2.56, -11.84, 19.04, 0, -11.84, 20.96, 0, -6.56, 15.84, -1.28, -6.56, 20.96, -1.28, -6.56, 20.96, 0, -6.56, 15.84, 0, -6.56, 15.84, -1.28, -6.56, 19.04, 2.56, -1.28, 17.76, 1.28, -1.28, 19.04, 1.28, -1.28, 19.04, 2.56, -1.28, 17.76, 2.56, -1.28, 17.76, 1.28, -1.28, -5.44, 1.28, 24, -5.44, 0, 22.72, -5.44, 0, 24, -5.44, 1.28, 24, -5.44, 1.28, 22.72, -5.44, 0, 22.72, 3.2, 1.28, 25.92, 1.92, 0, 25.92, 3.2, 0, 25.92, 3.2, 1.28, 25.92, 1.92, 1.28, 25.92, 1.92, 0, 25.92, 1.92, 1.28, 20.8, 3.2, 0, 20.8, 1.92, 0, 20.8, 1.92, 1.28, 20.8, 3.2, 1.28, 20.8, 3.2, 0, 20.8, 5.12, 0, 24, 5.12, 1.28, 22.72, 5.12, 1.28, 24, 5.12, 0, 24, 5.12, 0, 22.72, 5.12, 1.28, 22.72, 24.16, 0, -33.12, 24.16, -10.24, -30.56, 24.16, 0, -30.56, 24.16, 0, -33.12, 24.16, -10.24, -33.12, 24.16, -10.24, -30.56, 25.6, -10.24, -30.56, 24.16, 0, -30.56, 24.16, -10.24, -30.56, 25.6, -10.24, -30.56, 25.6, 0, -30.56, 24.16, 0, -30.56, 25.6, 0, -33.12, 24.16, -10.24, -33.12, 24.16, 0, -33.12, 25.6, 0, -33.12, 25.6, -10.24, -33.12, 24.16, -10.24, -33.12, 15.36, 1.28, 12.48, 14.08, 2.56, 12.48, 15.36, 2.56, 12.48, 15.36, 1.28, 12.48, 14.08, 1.28, 12.48, 14.08, 2.56, 12.48, 18.5, 0.4, 9.91, 18.34, 0.16, 9.63, 18.34, 0.4, 9.63, 18.5, 0.4, 9.91, 18.5, 0.16, 9.91, 18.34, 0.16, 9.63, 18.63, 0.4, 9.84, 18.34, 0.4, 9.63, 18.47, 0.4, 9.56, 18.63, 0.4, 9.84, 18.5, 0.4, 9.91, 18.34, 0.4, 9.63, 15.84, 2.56, -6.56, 20.96, 2.56, -11.84, 15.84, 2.56, -11.84, 15.84, 2.56, -6.56, 20.96, 2.56, -6.56, 20.96, 2.56, -11.84, 20.96, 2.56, -1.28, 15.84, 2.56, -6.56, 15.84, 2.56, -1.28, 20.96, 2.56, -1.28, 20.96, 2.56, -6.56, 15.84, 2.56, -6.56, -2.72, -1.28, -20.16, -2.72, 1.28, -25.28, -2.72, -1.28, -25.28, -2.72, -1.28, -20.16, -2.72, 1.28, -20.16, -2.72, 1.28, -25.28, 7.52, 1.28, -25.28, -2.72, -1.28, -25.28, -2.72, 1.28, -25.28, 7.52, 1.28, -25.28, 7.52, -1.28, -25.28, -2.72, -1.28, -25.28, -2.72, 1.28, -18.88, -2.72, -1.28, -13.76, -2.72, 1.28, -13.76, -2.72, 1.28, -18.88, -2.72, -1.28, -18.88, -2.72, -1.28, -13.76, 7.52, -1.28, -13.76, -2.72, 1.28, -13.76, -2.72, -1.28, -13.76, 7.52, -1.28, -13.76, 7.52, 1.28, -13.76, -2.72, 1.28, -13.76, 7.52, 1.28, -20.16, 7.52, -1.28, -25.28, 7.52, 1.28, -25.28, 7.52, 1.28, -20.16, 7.52, -1.28, -20.16, 7.52, -1.28, -25.28, 7.52, -1.28, -18.88, 7.52, 1.28, -13.76, 7.52, -1.28, -13.76, 7.52, -1.28, -18.88, 7.52, 1.28, -18.88, 7.52, 1.28, -13.76, 18.63, 0.16, 9.84, 18.72, 0.16, 9.92, 18.5, 0.16, 9.91, 18.53, 0.16, 9.46, 18.72, 0.16, 9.92, 18.63, 0.16, 9.84, 18.53, 0.16, 9.46, 18.63, 0.16, 9.84, 18.47, 0.16, 9.56, 18.72, 0.16, 9.92, 17.44, 0.16, 9.92, 18.5, 0.16, 9.91, 17.62, 0.16, 10.37, 17.44, 0.16, 9.92, 18.72, 0.16, 9.92, 18.08, 0.16, 10.56, 17.62, 0.16, 10.37, 18.72, 0.16, 9.92, 18.53, 0.16, 10.37, 18.08, 0.16, 10.56, 18.72, 0.16, 9.92, 18.08, 0.16, 9.28, 18.53, 0.16, 9.46, 18.47, 0.16, 9.56, 17.62, 0.16, 9.46, 18.08, 0.16, 9.28, 18.47, 0.16, 9.56, 17.62, 0.16, 9.46, 18.47, 0.16, 9.56, 17.5535, 0.16, 9.63, 18.47, 0.16, 9.56, 18.34, 0.16, 9.63, 17.5535, 0.16, 9.63, 18.5, 0.16, 9.91, 17.44, 0.16, 9.92, 18.34, 0.16, 9.63, 18.34, 0.16, 9.63, 17.44, 0.16, 9.92, 17.5535, 0.16, 9.63, 18.63, 0.16, 9.84, 18.47, 0.4, 9.56, 18.47, 0.16, 9.56, 18.63, 0.16, 9.84, 18.63, 0.4, 9.84, 18.47, 0.4, 9.56, 18.34, 0.4, 9.63, 18.47, 0.16, 9.56, 18.47, 0.4, 9.56, 18.34, 0.4, 9.63, 18.34, 0.16, 9.63, 18.47, 0.16, 9.56, 18.63, 0.4, 9.84, 18.5, 0.16, 9.91, 18.5, 0.4, 9.91, 18.63, 0.4, 9.84, 18.63, 0.16, 9.84, 18.5, 0.16, 9.91, 18.08, 2.56, 9.28, 18.53, 5.12, 9.46, 18.53, 2.56, 9.46, 18.08, 2.56, 9.28, 18.08, 5.12, 9.28, 18.53, 5.12, 9.46, 18.72, 5.12, 9.92, 18.53, 2.56, 9.46, 18.53, 5.12, 9.46, 18.72, 5.12, 9.92, 18.72, 2.56, 9.92, 18.53, 2.56, 9.46, 18.53, 5.12, 10.37, 18.72, 2.56, 9.92, 18.72, 5.12, 9.92, 18.53, 5.12, 10.37, 18.53, 2.56, 10.37, 18.72, 2.56, 9.92, 18.08, 5.12, 10.56, 18.53, 2.56, 10.37, 18.53, 5.12, 10.37, 18.08, 5.12, 10.56, 18.08, 2.56, 10.56, 18.53, 2.56, 10.37, 17.62, 5.12, 10.37, 18.08, 2.56, 10.56, 18.08, 5.12, 10.56, 17.62, 5.12, 10.37, 17.62, 2.56, 10.37, 18.08, 2.56, 10.56, 17.44, 5.12, 9.92, 17.62, 2.56, 10.37, 17.62, 5.12, 10.37, 17.44, 5.12, 9.92, 17.44, 2.56, 9.92, 17.62, 2.56, 10.37, 17.62, 5.12, 9.46, 17.44, 2.56, 9.92, 17.44, 5.12, 9.92, 17.62, 5.12, 9.46, 17.62, 2.56, 9.46, 17.44, 2.56, 9.92, 18.08, 5.12, 9.28, 17.62, 2.56, 9.46, 17.62, 5.12, 9.46, 18.08, 5.12, 9.28, 18.08, 2.56, 9.28, 17.62, 2.56, 9.46, 18.08, 0.16, 9.28, 18.53, 0, 9.46, 18.53, 0.16, 9.46, 18.08, 0.16, 9.28, 18.08, 0, 9.28, 18.53, 0, 9.46, 18.72, 0, 9.92, 18.53, 0.16, 9.46, 18.53, 0, 9.46, 18.72, 0, 9.92, 18.72, 0.16, 9.92, 18.53, 0.16, 9.46, 18.53, 0, 10.37, 18.72, 0.16, 9.92, 18.72, 0, 9.92, 18.53, 0, 10.37, 18.53, 0.16, 10.37, 18.72, 0.16, 9.92, 18.08, 0, 10.56, 18.53, 0.16, 10.37, 18.53, 0, 10.37, 18.08, 0, 10.56, 18.08, 0.16, 10.56, 18.53, 0.16, 10.37, 17.62, 0, 10.37, 18.08, 0.16, 10.56, 18.08, 0, 10.56, 17.62, 0, 10.37, 17.62, 0.16, 10.37, 18.08, 0.16, 10.56, 17.44, 0, 9.92, 17.62, 0.16, 10.37, 17.62, 0, 10.37, 17.44, 0, 9.92, 17.44, 0.16, 9.92, 17.62, 0.16, 10.37, 17.62, 0, 9.46, 17.44, 0.16, 9.92, 17.44, 0, 9.92, 17.62, 0, 9.46, 17.62, 0.16, 9.46, 17.44, 0.16, 9.92, 17.62, 0.16, 9.46, 18.08, 0, 9.28, 18.08, 0.16, 9.28, 17.62, 0.16, 9.46, 17.62, 0, 9.46, 18.08, 0, 9.28, 25.6, -10.24, -33.12, 24.16, -10.24, -30.56, 24.16, -10.24, -33.12, 25.6, -10.24, -33.12, 25.6, -10.24, -30.56, 24.16, -10.24, -30.56, 18.34, 5.12, 9.63, 18.63, 5.12, 9.84, 18.47, 5.12, 9.56, 18.34, 5.12, 9.63, 18.5, 5.12, 9.91, 18.63, 5.12, 9.84, 18.5, 5.12, 9.91, 18.72, 5.12, 9.92, 18.63, 5.12, 9.84, 18.72, 5.12, 9.92, 18.53, 5.12, 9.46, 18.63, 5.12, 9.84, 18.53, 5.12, 9.46, 18.47, 5.12, 9.56, 18.63, 5.12, 9.84, 17.44, 5.12, 9.92, 18.72, 5.12, 9.92, 18.5, 5.12, 9.91, 17.44, 5.12, 9.92, 17.62, 5.12, 10.37, 18.72, 5.12, 9.92, 17.62, 5.12, 10.37, 18.08, 5.12, 10.56, 18.72, 5.12, 9.92, 18.08, 5.12, 10.56, 18.53, 5.12, 10.37, 18.72, 5.12, 9.92, 18.53, 5.12, 9.46, 18.08, 5.12, 9.28, 18.47, 5.12, 9.56, 18.08, 5.12, 9.28, 17.62, 5.12, 9.46, 18.47, 5.12, 9.56, 17.62, 5.12, 9.46, 17.5535, 5.12, 9.63, 18.47, 5.12, 9.56, 17.5535, 5.12, 9.63, 18.34, 5.12, 9.63, 18.47, 5.12, 9.56, 18.34, 5.12, 9.63, 17.44, 5.12, 9.92, 18.5, 5.12, 9.91, 17.44, 5.12, 9.92, 18.34, 5.12, 9.63, 17.5535, 5.12, 9.63, -12.16, -1.44, 23.68, -11.52, -1.44, 23.04, -11.52, -1.44, 23.68, -12.16, -1.44, 23.68, -12.16, -1.44, 23.04, -11.52, -1.44, 23.04, 19.04, -0.16, 0.16, 17.76, -0.16, 0.48, 17.76, -0.16, 0.16, 19.04, -0.16, 0.16, 19.04, -0.16, 0.48, 17.76, -0.16, 0.48, -12.16, -1.44, 23.04, -11.52, -1.28, 23.04, -11.52, -1.44, 23.04, -12.16, -1.44, 23.04, -12.16, -1.28, 23.04, -11.52, -1.28, 23.04, -12.16, -1.28, 23.68, -11.52, -1.44, 23.68, -11.52, -1.28, 23.68, -12.16, -1.28, 23.68, -12.16, -1.44, 23.68, -11.52, -1.44, 23.68, -11.52, -1.28, 23.68, -11.52, -1.44, 23.04, -11.52, -1.28, 23.04, -11.52, -1.28, 23.68, -11.52, -1.44, 23.68, -11.52, -1.44, 23.04, 17.76, 0, 0.16, 19.04, -0.16, 0.16, 17.76, -0.16, 0.16, 17.76, 0, 0.16, 19.04, 0, 0.16, 19.04, -0.16, 0.16, 19.04, 0, 0.48, 17.76, -0.16, 0.48, 19.04, -0.16, 0.48, 19.04, 0, 0.48, 17.76, 0, 0.48, 17.76, -0.16, 0.48 )

[node name="Kimo_Theme_B1" instance=ExtResource( 7 )]

[node name="Horroko" parent="." index="0" instance=ExtResource( 2 )]
transform = Transform( 0.75, 0, 0, 0, 0.75, 0, 0, 0, 0.75, 2.64074, -0.548637, 22.9072 )
speedrate = 35

[node name="Horroko2" parent="." index="1" instance=ExtResource( 2 )]
transform = Transform( 0.75, 0, 0, 0, 0.75, 0, 0, 0, 0.75, 2.33176, -0.599089, -20.5231 )
speedrate = 35

[node name="Sharu" parent="." index="2" instance=ExtResource( 5 )]
transform = Transform( 0.5, 0, 0, 0, 0.5, 0, 0, 0, 0.5, 2.78371, -1.05807, -18.5363 )

[node name="Sharukurusu" parent="Sharu/Sharukurusu_Root" index="0"]
material/0 = SubResource( 1 )

[node name="Habarool_Green" parent="." index="3" instance=ExtResource( 3 )]
transform = Transform( 0.4, 0, 0, 0, 0.4, 0, 0, 0, 0.4, 0, 0.978417, -22.8894 )
speed = 250
speedrate = 250

[node name="010c20_high" parent="Habarool_Green/Reaverbot_Root" index="0"]
material/0 = SubResource( 2 )

[node name="Skeleton" parent="Habarool_Green/Reaverbot_Root/010c20_high" index="0"]
bones/1/bound_children = [ NodePath("BoneAttachment") ]

[node name="Door_B" parent="." index="4" instance=ExtResource( 1 )]
transform = Transform( 0.12, 0, 0, 0, 0.12, 0, 0, 0, 0.12, 18.4676, -0.39535, 0.315571 )
door_speed = 50

[node name="MAP01-0" parent="." index="5"]
mesh = ExtResource( 8 )

[node name="StaticBody" type="StaticBody" parent="MAP01-0" index="0"]
collision_layer = 363
collision_mask = 363

[node name="CollisionShape" type="CollisionShape" parent="MAP01-0/StaticBody" index="0"]
shape = SubResource( 3 )

[editable path="Sharu"]

[editable path="Sharu/Sharukurusu_Root"]

[editable path="Habarool_Green"]
