[gd_scene load_steps=7 format=2]

[ext_resource path="res://Models/small_explosion.gd" type="Script" id=1]
[ext_resource path="res://Maps/Kat_race/CH_B1.PNG" type="Texture" id=2]
[ext_resource path="res://sfx/sfx-explosion1.wav" type="AudioStream" id=3]

[sub_resource type="SphereMesh" id=1]
radius = 0.5
height = 1.0

[sub_resource type="SpatialMaterial" id=2]
flags_transparent = true
params_diffuse_mode = 4
params_specular_mode = 3
params_cull_mode = 2
albedo_color = Color( 1, 0.352941, 0, 1 )
albedo_texture = ExtResource( 2 )

[sub_resource type="SphereShape" id=3]
radius = 0.5

[node name="small_explosion" type="Area"]
collision_layer = 524544
collision_mask = 524288
script = ExtResource( 1 )

[node name="MeshInstance" type="MeshInstance" parent="."]
mesh = SubResource( 1 )
material/0 = SubResource( 2 )

[node name="CollisionShape" type="CollisionShape" parent="."]
shape = SubResource( 3 )

[node name="explode_sfx" type="AudioStreamPlayer3D" parent="."]
stream = ExtResource( 3 )
unit_db = 12.0
